<svg width="57" height="57" viewBox="0 0 57 57" fill="none" xmlns="http://www.w3.org/2000/svg">
<path d="M18.5935 2.46416C23.5965 2.91898 27.9166 4.05663 31.8467 5.79345M11.1718 1.40391C8.62719 1.40391 3.75007 0.873869 1.62953 2.46416C0.599749 3.23644 5.07081 15.7605 9.9429 28.4404M5.87057 15.7173C6.93082 14.127 12.02 10.4161 17.5333 8.29563C23.0466 6.17513 28.8427 5.74397 31.8467 5.79345M31.8467 5.79345C36.6345 7.90927 40.8436 10.9143 45.0036 14.6571M9.9429 28.4404C14.1964 39.5105 18.7557 50.6993 20.227 54.2906C20.4748 54.8954 21.2218 55.0972 21.7536 54.7171C25.0646 52.3503 31.4595 48.2098 37.1479 45.9345C43.0134 43.5883 51.1321 41.9632 55.2714 41.3085C55.8073 41.2237 56.1833 40.7381 56.1081 40.2007C55.2146 33.8149 52.2013 21.3558 46.1601 15.7173C45.7747 15.3576 45.3894 15.0042 45.0036 14.6571M9.9429 28.4404C13.3566 25.6131 16.8501 22.2462 26.5455 18.368C34.4974 15.1873 40.9714 15.0105 45.0036 14.6571" stroke="#0099DB" stroke-width="1.5" stroke-linecap="round"/>
<path d="M8.52344 55.4768H20.7163H33.4393" stroke="#0099DB" stroke-width="1.5" stroke-linecap="round"/>
<path d="M14.8828 41.1634C18.5937 38.336 26.5456 33.2115 32.377 31.091C42.4493 27.4283 47.5739 27.3801 52.5217 26.85" stroke="#0099DB" stroke-width="1.5" stroke-linecap="round"/>
</svg>
