<svg width="23" height="45" viewBox="0 0 23 45" fill="none" xmlns="http://www.w3.org/2000/svg">
<path d="M11.932 45C11.2529 45 10.7025 44.4496 10.7025 43.7704L10.7025 4.16054L2.95328 11.9169C2.71737 12.1528 2.40283 12.2743 2.08829 12.2743C1.77375 12.2743 1.4592 12.1528 1.2233 11.9169C0.744335 11.4379 0.744335 10.6587 1.2233 10.1797L11.067 0.34314C11.5246 -0.114377 12.3395 -0.114377 12.8042 0.34314L22.6408 10.1869C23.1197 10.6659 23.1197 11.4451 22.6408 11.924C22.1618 12.403 21.3826 12.403 20.9036 11.924L13.1545 4.17484L13.1545 43.7776C13.1616 44.4567 12.6112 45 11.932 45Z" fill="#EF1043"/>
</svg>
